-----BEGIN PGP SIGNATURE-----
Version: BCPG v1.68

iQGcBAABCgAGBQJl4knhAAoJEDdwF3BqJd4keLoMAKRLREbWNK6zYWRE4iCoKRrb
vMl7mKKtotp1Gy5/CyY7g8pIN06fDolNFaCMhC+ho/n9Wmtua2VjhPjVlHkxAUiT
kRC1vEJa0TSTfSOcMNquVn9Xu4XI7Xom08XLgTihoCgfYd99b/kPoe0+rNerL9+5
M8FpE6c/mVCKSlEbniegFXAxe9z+HGAruS0wtPWmwoqDCqhEt16x3YP5ea8ddaOi
WCk/2T6FDXdN76NgMBeNmOw4zmneh9sXBOD06Xr3hSnXtiOrULsF/KJ2MRLntbzb
qt9AYEAep3mL4A28RcDuGa9eadMbZsNmAwXix2w6lEu9AcqLC0ConfZXFCVvIJXb
7VG0vEEdpmzv5OA/lM2EBcjQIcSEE/V0Lqe+8s0t1rrP2LG+CeXQTe8Y8lX34wCR
DB7awrHlWkeaBmb91ypLfc8UxjU8Hv7YO/vYTK4p5TOfyjVdLLQnbQdfQBGl2Qj3
1qfWiudwTP7V9GCW3zvOhYSl6mFTXabjcOWUBw+LpQ==
=VJKz
-----END PGP SIGNATURE-----
